{"collection":
	[{
		"kind":"track",
		"id":121782040,
		"created_at":"2013/11/25 07:46:31 +0000",
		"user_id":9929731,
		"duration":47990,
		"commentable":true,
		"state":"finished",
		"original_content_size":8454192,
		"last_modified":"2014/11/15 19:56:16 +0000",
		"sharing":"public",
		"tag_list":"drop cave sound game side Story the Electro Electric Electronic",
		"permalink":"drip-drip-drop",
		"streamable":true,
		"embeddable_by":"all",
		"downloadable":true,
		"purchase_url":null,
		"label_id":null,
		"purchase_title":null,
		"genre":"drip",
		"title":"Drip Drip Drop",
		"description":"",
		"label_name":"",
		"release":"",
		"track_type":"",
		"key_signature":"",
		"isrc":"",
		"video_url":null,
		"bpm":null,
		"release_year":null,
		"release_month":null,
		"release_day":null,	
		"original_format":"wav",
		"license":"all-rights-reserved",
		"uri":"https://api.soundcloud.com/tracks/121782040",
		"user":{
			"id":9929731,
			"kind":"user",
			"permalink":"argzero",
			"username":"Argzero",
			"last_modified":"2014/11/05 08:45:18 +0000",
			"uri":"https://api.soundcloud.com/users/9929731",
			"permalink_url":"http://soundcloud.com/argzero",
			"avatar_url":"https://i1.sndcdn.com/avatars-000096110207-do6cdm-large.jpg"
		},
		"permalink_url":"http://soundcloud.com/argzero/drip-drip-drop",
		"artwork_url":null,
		"waveform_url":"https://w1.sndcdn.com/dncrDDLAzgJB_m.png",
		"stream_url":"https://api.soundcloud.com/tracks/121782040/stream",
		"download_url":"https://api.soundcloud.com/tracks/121782040/download",
		"playback_count":86,
		"download_count":0,
		"favoritings_count":1,
		"comment_count":2,
		"attachments_uri":"https://api.soundcloud.com/tracks/121782040/attachments",
		"policy":"ALLOW"
	}],
	"total_results":15,
	"next_href":"https://api.soundcloud.com/search/sounds?client_id=fb069dd353f50db8f88345486468990f&limit=1&offset=1&q=argzero",
	"tx_id":"",
	"facets":[]
}